<svg width="90" height="21" viewBox="0 0 90 21" fill="none" xmlns="http://www.w3.org/2000/svg">
<path d="M17.0845 13.3163V4.11482C17.097 4.03002 17.0894 3.94348 17.0626 3.86208C17.0357 3.78069 16.9902 3.70669 16.9297 3.64596C16.8692 3.58523 16.7954 3.53945 16.7141 3.51225C16.6328 3.48506 16.5463 3.4772 16.4615 3.48931H15.2402V0.336914H18.8667C19.5469 0.336914 20.0408 0.493293 20.356 0.80605C20.6713 1.11881 20.8103 1.60532 20.8103 2.26807V13.2022C20.8103 14.5078 21.1892 15.5305 21.9471 16.2702C22.705 17.0098 23.7252 17.378 25.0077 17.3747C26.2968 17.3747 27.3194 17.0057 28.0757 16.2677C28.8319 15.5296 29.2101 14.4979 29.2101 13.1724V2.26807C29.2101 1.60615 29.3615 1.11881 29.6643 0.80605C29.9671 0.493293 30.4611 0.336914 31.1536 0.336914H34.7776V3.48931H33.5564C33.4714 3.47731 33.3849 3.48522 33.3035 3.51241C33.2221 3.5396 33.1482 3.58533 33.0876 3.64599C33.0269 3.70665 32.9812 3.78058 32.954 3.86195C32.9268 3.94331 32.9189 4.02988 32.9309 4.11482V13.3163C32.9309 15.5503 32.2069 17.3631 30.7589 18.7548C29.311 20.1465 27.408 20.8424 25.0499 20.8424C22.662 20.8424 20.74 20.1465 19.2837 18.7548C17.8275 17.3631 17.0944 15.5503 17.0845 13.3163Z" fill="#202020"/>
<path d="M38.9046 9.79409H45.5619C46.5084 9.79409 47.2423 9.51526 47.7636 8.95759C48.2849 8.39993 48.5447 7.61886 48.543 6.6144C48.543 5.62152 48.2832 4.85452 47.7636 4.3134C47.4841 4.03307 47.1486 3.8148 46.7791 3.6728C46.4096 3.53081 46.0143 3.46829 45.619 3.48931H37.043V0.336914H46.0732C47.9464 0.336914 49.4614 0.881343 50.6181 1.9702C51.7748 3.05906 52.354 4.54093 52.3557 6.41582C52.3661 7.20963 52.2315 7.99867 51.9585 8.74412C51.748 9.35357 51.4152 9.91359 50.9805 10.3898C50.652 10.7383 50.2847 11.0481 49.8859 11.3132C49.6178 11.4983 49.3209 11.6375 49.0072 11.7252V11.7823C49.4474 11.9969 49.7986 12.3587 50 12.805L51.9585 16.6946C52.1869 17.1315 52.6585 17.3474 53.3783 17.3474H53.7482V20.4998H51.7897C51.197 20.5306 50.6045 20.4341 50.0522 20.2168C49.665 20.0282 49.31 19.6211 48.9873 18.9956L46.386 13.9121C46.2353 13.599 45.9929 13.3393 45.691 13.1674C45.3053 13.0221 44.8935 12.9595 44.4821 12.9837L38.9046 12.8447V9.79409Z" fill="#202020"/>
<path d="M61.0627 20.4998L55.0136 4.1173C54.9593 3.92862 54.8426 3.76396 54.6825 3.65031C54.5224 3.53666 54.3285 3.48077 54.1324 3.49179H53.6211V0.336914H55.9792C56.6792 0.336914 57.1946 0.451095 57.5256 0.679458C57.8582 0.905338 58.1362 1.3422 58.3646 1.98509L62.2269 13.2295C62.3411 13.572 62.4635 13.9857 62.5942 14.4706C62.725 14.9554 62.8292 15.3625 62.907 15.6918L62.9939 16.1733H63.051C63.2414 15.1729 63.4976 14.1862 63.818 13.2195L67.6877 1.98509C67.9161 1.3422 68.1842 0.905338 68.5118 0.679458C68.8395 0.453577 69.3458 0.336914 70.0458 0.336914H72.4312V3.48931H71.8926C71.6965 3.47829 71.5026 3.53418 71.3425 3.64783C71.1824 3.76147 71.0656 3.92613 71.0114 4.11482L64.992 20.4973L61.0627 20.4998Z" fill="#202020"/>
<path d="M75.1641 0.336914H89.3598V3.48931H75.1641V0.336914Z" fill="#202020"/>
<path d="M75.1641 17.3506H89.3598V20.5005H75.1641V17.3506Z" fill="#202020"/>
<path d="M75.1641 8.62598H88.3892V11.7784H75.1641V8.62598Z" fill="#202020"/>
<path d="M2.10442 9.69478C2.68627 10.1566 3.30379 10.5716 3.95118 10.9359C4.60262 11.3049 5.2729 11.6396 5.95928 11.9387L6.07346 11.9883C6.15002 11.7845 6.19522 11.5703 6.2075 11.3529L6.28693 10.4245C6.3085 10.033 6.23774 9.64189 6.08037 9.28273C5.92299 8.92356 5.6834 8.60642 5.38092 8.35687C4.74968 7.7835 4.3052 7.03376 4.10507 6.20481C4.03987 5.93646 3.99588 5.66341 3.97352 5.38816C3.89409 4.39528 4.0877 3.15418 4.86214 1.66486C5.39333 0.652126 5.90467 0.175544 6.37628 0.0117188C4.68177 0.112662 3.26278 0.647162 2.11931 1.61522C1.51424 2.10292 1.02829 2.72213 0.698399 3.42578C0.368506 4.12944 0.203345 4.89904 0.215466 5.6761C0.206149 6.44515 0.371284 7.20631 0.698457 7.90236C1.02563 8.59841 1.50633 9.21124 2.10442 9.69478Z" fill="#D92211"/>
<path d="M7.48618 15.7967C7.39186 15.7967 7.30994 15.7967 7.30994 15.9258C7.30994 16.2311 7.30994 16.7251 7.30994 17.0304C7.29009 17.8892 7.18583 19.8129 7.18087 20.4459C7.18087 20.5551 7.18087 20.6668 7.16101 20.7785C7.15944 20.7971 7.15156 20.8146 7.13867 20.8281C7.43902 20.8281 7.72944 20.7934 8.01241 20.7562C8.01241 20.3888 7.83121 16.5215 7.82128 16.0747C7.81135 15.8315 7.74681 15.7843 7.48618 15.7967Z" fill="#D92211"/>
<path d="M9.10739 2.97864C9.34957 3.60403 9.50977 4.25815 9.58397 4.92468C9.61531 5.09823 9.62449 5.27505 9.61127 5.45091C9.6166 5.78885 9.57738 6.12602 9.49461 6.45372C9.44098 6.63096 9.36945 6.80229 9.28114 6.96505L11.9843 8.22601C12.4328 7.59332 12.7253 6.86357 12.8381 6.09628C13.1186 4.07081 12.6966 3.31622 12.5552 2.92403C12.2682 2.30806 11.8521 1.76097 11.3352 1.31986C10.8183 0.878745 10.2126 0.553909 9.55915 0.367366C8.72125 0.155955 7.86353 0.032829 7 0C8.19394 0.332615 9.02299 2.61872 9.10739 2.97864Z" fill="#D92211"/>
<path d="M12.9231 12.4931C12.6051 11.819 12.1393 11.2251 11.5604 10.7556C10.9832 10.2969 10.365 9.89225 9.71366 9.54675C9.10304 9.2191 8.48993 8.92868 7.87931 8.66309C7.60411 9.17762 7.44962 9.74803 7.42755 10.3311L7.35309 11.3612C7.3305 11.6688 7.41853 11.9742 7.60131 12.2226C7.7279 12.4534 7.91158 12.6445 8.05803 12.8605C8.2442 13.141 8.44277 13.414 8.63142 13.6945C8.80352 13.9656 8.927 14.2646 8.9963 14.5782C9.06131 14.8437 9.07396 15.1194 9.03353 15.3898C9.01616 15.5413 9.01864 15.6927 9.00375 15.8441C8.97396 16.1891 8.67362 19.2298 8.65376 19.6394C8.63638 19.9794 8.60908 20.3195 8.58426 20.6596C9.72648 20.4438 10.7837 19.9075 11.6324 19.1131C12.2178 18.5794 12.6827 17.9269 12.996 17.1992C13.3093 16.4716 13.4639 15.6855 13.4494 14.8934C13.4586 14.0637 13.2786 13.2428 12.9231 12.4931Z" fill="#D92211"/>
<path d="M4.91541 19.6371C4.89307 19.2275 4.59273 16.1868 4.56294 15.8418C4.55053 15.6904 4.55053 15.539 4.53564 15.3876C4.49044 15.116 4.50142 14.8381 4.56791 14.5709C4.62595 14.2867 4.7326 14.0146 4.88315 13.7667L2.29669 12.5554L1.07049 11.9795C0.862454 12.2514 0.680453 12.5423 0.526886 12.8483C0.17003 13.5666 -0.0103691 14.3597 0.000659844 15.1617C-0.011831 15.9388 0.153166 16.7085 0.483086 17.4122C0.813007 18.1159 1.29915 18.7351 1.90451 19.2226C2.61736 19.8073 3.43788 20.2466 4.31969 20.5158C4.53848 20.5817 4.76051 20.6364 4.98492 20.6796C4.96506 20.3321 4.93031 19.9846 4.91541 19.6371Z" fill="#D92211"/>
<path d="M6.48677 17.0004C6.46939 16.437 6.42968 16.504 6.41727 15.9356C6.41727 15.799 6.32046 15.8015 6.22366 15.799C6.12685 15.7966 5.81657 15.8139 5.81409 15.938C5.79175 16.8143 5.79672 16.1192 5.78182 16.9955C5.76693 18.0206 5.70736 19.7408 5.6875 20.7659C5.68782 20.7717 5.68782 20.7775 5.6875 20.7833C5.99281 20.8156 6.3006 20.8354 6.61336 20.8379C6.59273 20.8171 6.57963 20.79 6.57613 20.761C6.54386 20.0858 6.50911 17.6607 6.48677 17.0004Z" fill="#D92211"/>
</svg>
