<svg width="45" height="45" viewBox="0 0 45 45" fill="none" xmlns="http://www.w3.org/2000/svg">
<rect width="44.7775" height="44.7775" rx="22.3887" fill="white"/>
<path d="M22.5 13C17.2603 13 13 17.2603 13 22.5C13 27.7397 17.2603 32 22.5 32C27.7397 32 32 27.7397 32 22.5C32 17.2603 27.7397 13 22.5 13ZM22.5 30.6744C17.993 30.6744 14.3256 27.007 14.3256 22.5C14.3256 17.993 17.993 14.3256 22.5 14.3256C27.007 14.3256 30.6744 17.993 30.6744 22.5C30.6744 27.007 27.007 30.6744 22.5 30.6744Z" fill="#1994FF"/>
<path d="M26.2823 25.6191C26.2823 25.7958 26.2123 25.9615 26.0871 26.0867C25.9619 26.2119 25.7962 26.2819 25.6195 26.2819C25.4427 26.2819 25.277 26.2119 25.1518 26.0867L22.033 22.9679C21.9079 22.8427 21.8379 22.677 21.8379 22.5003V17.1979C21.8379 16.8334 22.1361 16.5352 22.5007 16.5352C22.6848 16.5352 22.8505 16.6088 22.9683 16.7303C23.0898 16.8518 23.1635 17.0175 23.1635 17.1979V22.0142C23.1635 22.1505 23.2187 22.283 23.3144 22.3788L26.0871 25.1514C26.2123 25.2766 26.2823 25.4423 26.2823 25.6191Z" fill="#FFB000"/>
</svg>
